[
  {
    "category": "All",
    "keyword": "Given",
    "step": "Given the following panel serial number \"panelserialnumberValue\"",
    "datatableHeader": ""
  },
  {
    "category": "Pulse",
    "keyword": "When",
    "step": "When a pulse request message is sent with parameters",
    "datatableHeader": "| doorName | boardNo | nodeNo | administratorId |"
  },
  {
    "category": "Pulse",
    "keyword": "Then",
    "step": "Then I check that the Arduino confirms the pulse command",
    "datatableHeader": ""
  },
  {
    "category": "Firmware",
    "keyword": "Given",
    "step": "And the file \"filenameValue\" is uploaded",
    "datatableHeader": ""
  },
  {
    "category": "Firmware",
    "keyword": "When",
    "step": "When I send an update firmware request",
    "datatableHeader": ""
  },
  {
    "category": "Firmware",
    "keyword": "When",
    "step": "And wait maximum \"noOfMinutesValue\" minutes for the panel to restart",
    "datatableHeader": ""
  },
  {
    "category": "Firmware",
    "keyword": "Then",
    "step": "Then I check in the latest panel log that the firmware version is \"firmwareVersionValue\" and the build version is \"buildVersionValue\"",
    "datatableHeader": ""
  },
  {
    "category": "Credentials",
    "keyword": "Given",
    "step": "And the user identified uniquely by the name \"userFullNameValue\" exists",
    "datatableHeader": ""
  },
  {
    "category": "Credentials",
    "keyword": "When",
    "step": " When I send a request to create a 26 bit type credential the card number \"cardNumberValue\" and facility code \"facilityCodeValue\"",
    "datatableHeader": ""
  },
  {
    "category": "Credentials",
    "keyword": "When",
    "step": "When I send a request to create a 26 bit type credential the card number \"cardNumberValue\" and facility code \"facilityCodeValue\" that will be enabled on \"MM-dd-yyyy hh:mm a\" and it will expire on \"MM-dd-yyyy hh:mm a\"",
    "datatableHeader": ""
  },
  {
    "category": "Credentials",
    "keyword": "Then",
    "step": "Then the credential should be added to the panel",
    "datatableHeader": ""
  },
  {
    "category": "Credentials",
    "keyword": "Given",
    "step": "And that a 26 bit type credential with the card number \"cardNumberValue\" and facility code \"facilityCodeValue\" exists",
    "datatableHeader": ""
  },
  {
    "category": "Credentials",
    "keyword": "When",
    "step": "When I send a request to delete the credential",
    "datatableHeader": ""
  },
  {
    "category": "Credentials",
    "keyword": "Then",
    "step": "Then the credential should be deleted from the panel",
    "datatableHeader": ""
  },
  {
    "category": "Credentials",
    "keyword": "Given",
    "step": "And the simulator connected to the reader with number \"readerNumberValue\"",
    "datatableHeader": ""
  },
  {
    "category": "Credentials",
    "keyword": "Given",
    "step": "And the card number \"cardNumberValue\" and facility code \"facilityCodeValue\" does not exist on the panel",
    "datatableHeader": ""
  },
  {
    "category": "Credentials",
    "keyword": "Given",
    "step": "And the card number \"cardNumberValue\" and facility code \"facilityCodeValue\" exists on the panel",
    "datatableHeader": ""
  },
  {
    "category": "Credentials",
    "keyword": "Given",
    "step": "And I present the credential \"noOfTimesValue\" number of times",
    "datatableHeader": ""
  },
  {
    "category": "Credentials",
    "keyword": "Given",
    "step": "And I wait \"noOfSecondsValue\" seconds between presenting the credential",
    "datatableHeader": ""
  },
  {
    "category": "Credentials",
    "keyword": "When",
    "step": "When I send a 26 bit type credential to simulator with the card number \"cardNumberValue\" and facility code \"facilityCodeValue\"",
    "datatableHeader": ""
  },
  {
    "category": "Credentials",
    "keyword": "Then",
    "step": "Then I verify that the panel reports unknown card and the door remains locked",
    "datatableHeader": ""
  },
  {
    "category": "Credentials",
    "keyword": "Then",
    "step": "Then I verify that the panel confirms that the door is unlocked by reading the relay status from the Arduino",
    "datatableHeader": ""
  },
  {
    "category": "Credentials",
    "keyword": "Then",
    "step": "Then I verify that the panel confirms that the credential has no permission and the door remains locked",
    "datatableHeader": ""
  },
  {
    "category": "Credentials",
    "keyword": "Then",
    "step": "Then I verify that the panel confirms that the credential is outside date range and the door remains locked",
    "datatableHeader": ""
  },
  {
    "category": "Schedule",
    "keyword": "Given",
    "step": "And group \"groupNameValue\" exist in the current account",
    "datatableHeader": ""
  },
  {
    "category": "Schedule",
    "keyword": "When",
    "step": "When I create a schedule with the name \"newScheduleNameValue\", assigned to the site \"siteNameValue\"",
    "datatableHeader": ""
  },
  {
    "category": "Schedule",
    "keyword": "When",
    "step": "And having the enabling group \"groupNameValue\" and grace period \"gracePeriodValue\"",
    "datatableHeader": ""
  },
  {
    "category": "Schedule",
    "keyword": "When",
    "step": "And the schedule blocks are \"DayName hh:mmAA-hh:mmAA,DayName hh:mmAA-hh:mmAA\"",
    "datatableHeader": ""
  },
  {
    "category": "Schedule",
    "keyword": "Then",
    "step": "Then the schedule is created and added to the selected panel",
    "datatableHeader": ""
  },
  {
    "category": "Holiday",
    "keyword": "When",
    "step": "When I create a holiday with the name \"newHolidayNameValue\", assigned to the site \"siteNameValue\"",
    "datatableHeader": ""
  },
  {
    "category": "Holiday",
    "keyword": "When",
    "step": "And having the start date \"MM-dd-yyyy hh:mm AA\" and the end date \"MM-dd-yyyy hh:mm AA\"",
    "datatableHeader": ""
  },
  {
    "category": "Holiday",
    "keyword": "When",
    "step": "And it is assigned to the following schedules \"schedulesName\"",
    "datatableHeader": ""
  },
  {
    "category": "Holiday",
    "keyword": "Then",
    "step": "Then the holiday is created and added to the selected panel",
    "datatableHeader": ""
  },
  {
    "category": "Door Ajar",
    "keyword": "When",
    "step": "When I simulate with Arduino the closing of the following door",
    "datatableHeader": "| doorName | boardNo | nodeNo | administratorId |"
  },
  {
    "category": "Door Ajar",
    "keyword": "When",
    "step": "And the Door ajar enabled property for that door is true",
    "datatableHeader": ""
  },
  {
    "category": "Door Ajar",
    "keyword": "When",
    "step": "And I pulse the door",
    "datatableHeader": ""
  },
  {
    "category": "Door Ajar",
    "keyword": "When",
    "step": "And I simulate with Arduino the opening of the door and wait the amount specified in the Door ajar threshold property",
    "datatableHeader": ""
  },
  {
    "category": "Door Ajar",
    "keyword": "Then",
    "step": "Then the DOOR_AJAR_SET event was received and exists in the events log",
    "datatableHeader": ""
  },
  {
    "category": "Door Forced Open",
    "keyword": "When",
    "step": "When I simulate with Arduino a DOOR_FORCED_OPEN event on door",
    "datatableHeader": "| doorName | boardNo | nodeNo | administratorId |"
  },
  {
    "category": "Door Forced Open",
    "keyword": "When",
    "step": "And the door has the Use-request-to-exit property enabled",
    "datatableHeader": ""
  },
  {
    "category": "Door Forced Open",
    "keyword": "Then",
    "step": "Then the event was received and exists in the events log",
    "datatableHeader": ""
  },
  {
    "category": "Wait",
    "keyword": "Then",
    "step": "Then I wait between scenarios for \"noOfMintuesValue\" minutes and \"noOfSecondsValue\" seconds",
    "datatableHeader": ""
  }
]