{
  "accountId": 6025,
  "accountObjectId": 60044,
  "accountTypeId": 3,
  "panels": [
    {
      "objectId": 3452
      "brainId": 15,
      "brainTypeId": 3,
      "panelName": "VSP_panel",
	  "electronicSerialNumber": "THB-3C-YYYVQ",
      "firmwareVersion": "5.0.0",
      "hardwareControllerVersion": 4.0,
      "physicalAddress": "THB-3C-YYYVQ",
      "password": "gdtr54er#df",
      "isRegistered": 0,
      "timeZone": "Europe/Bucharest",
      "ipAddress": "/10/0.2.1"
    }
  ],
  "sites": [
    {
      "objectId": 35462,
	  "siteId": 1,
      "siteName": "VSP_site",
      "address1": "Timisoara, Romania",
      "address2": "",
      "city": "Timisoara",
      "state/province": "Romania",
      "ZIP/postalCode": "300700",
      "timeZone": "Europe/Bucharest"
    }
  ],
  "devices": [
    {
      "objectId": 5647,
	  "deviceId": 1,
      "doorName": "VSP_door",
	  "panelId": "THB-3C-YYYVQ",
      "siteIds": [
        1,
        2
      ],
      "deviceTypeId": 3,
      "board": "ACS300 Door Board 1: Inside panel",
      "node": "Inside panel: Node 2 (Board 1)",
      "readerInterface": "Wiegand",
      "bluetoothReaderId": "",
      "doorAjarEnabled": "Yes",
      "doorAjarThreshold": 120,
      "invalidPINsThreshold": 3,
      "invalidPINsShutdown": 120,
      "passThroughPeriod": 5,
      "debouncePeriod": 0,
      "useLockOnOpen": "No",
      "lockOnOpenDelay": 0,
      "useRequestToExit": "No",
      "rexUnlock": "No",
      "maximumREXExtension": 0,
      "in/out": "Neither",
      "doorUnlockScheduleId": 54657,
      "twoFactorSchedule": "None",
      "twoFactorInterval": 3,
      "cardRequiredSchedule": "None",
      "useAlarmShunt": "Yes",
      "alarmShuntDuration": 1,
      "controlFromBrowser": "Yes"
    }
  ],
  "holidays": [
    {
	  "holidayId": 1,
      "name":  "Christmas Day",
      "siteId": 1,
      "from": "12/25/2019 12:00 AM",
      "to": "12/25/2019 11:59 PM"
    },
    {
	  "holidayId": 2,
      "name": "National Day",
      "siteId": 1,
      "from": "12/01/2019 12:00 AM",
      "to": "12/01/2019 11:59 PM"
    }
  ],
  "schedules": [
    {
	  "scheduleId": 1,
      "scheduleName": "VSP_schedule",
      "description": "Monday thru Friday 9am-5pm",
      "scheduleTypeId": 1,
      "siteId": 1,
      "enablingGroupId": 964201,
      "enablingGracePeriod": 0,
      "scheduleBlocks": [
        {
          "startMinute": 1860,
          "stopMinute": 2340
        },
        {
          "startMinute": 3300,
          "stopMinute": 3780
        }
      ],
      "scheduleExceptionBlocks": [
        {
          "startMinute": 10080,
          "stopMinute": 11519
        }
      ],
      "holidayIds": [
        1,
        2
      ]
    }
  ],
  "groups": [
    {
      "objectId": 78564,
	  "securityGroupId": 1,
      "groupName": "VSP_group",
      "immuneToAntipassback": "No",
      "antipassbackResetTime": 70,
      "deviceSchedulePairs": [
        {
          "deviceObjectId": 97546,
          "scheduleId": 7868
        }
      ]
    }
  ],
  "users": [
    {
      "objectId": 34526,
      "userId": 1,
      "userTypeId": 1,
      "firstName": "VSP First Name",
      "middleName": "",
      "lastName": "VSP Last Name",
      "groupsIds": [
        1
      ]
    }
  ]
  ,
    "credentials": [
      {
        "userObjectId": 34526,
        "accessCredentialId": 1,
        "accessCredentialTypeId": 3,
        "credential":  "f4c4ffc6",
        "referenceId": "Laura_card",
        "enableOn": 01/29/2019,
        "expires": 09/29/2019
      }
    ]
}
